{
  "description": "VSETH is the association of students at ETH Zurich. It consists of study-programme-specific student associations, purpose-specific commissions, as well as student organizations.",
  "positions": [
    {
      "employer": "VCS - Chemistry Students Association",
      "job": "IT",
      "start": "2019",
      "end": "2019",
      "website": "https://vcs.ethz.ch",
      "description": "In VCS, the student association of chemists, chemical engineers and interdisciplinary sciences at ETH Zurich, I was responsible for the website, emails, soda machine, social media bots and everything else IT-related."
    },
    {
      "employer": "TheAlternative",
      "job": "President / Vice President / Events",
      "start": "2018",
      "end": "2023",
      "website": "https://thealternative.ch",
      "description": "TheAlternative organizes and runs the LinuxDays, a series of talks/courses about Linux and Free and Open Source Software. I currently give a talk on Git and GitLab and run the Install Events."
    },
    {
      "employer": "VSETH - Association of Students at ETH",
      "job": "Internal Affairs",
      "start": "2020",
      "end": "2020",
      "website": "https://vseth.ethz.ch",
      "description": "In the VSETH board, I was responsible for all student associations, commissions, associated and recognized organizations. External relations were also part of my portfolio."
    },
    {
      "employer": "ExBeerience Commission",
      "job": "Kanzler / Hutmacher",
      "start": "2021",
      "end": "2023",
      "website": "https://exbeerience.ethz.ch",
      "description": "ExBeKo is a VSETH commission that organizes two craft beer festivals at ETH, as well as a few beer tastings throughout the year. My job there was to write protocols for meetings and do software development for the beer tasting application, which can be found at https://tasting.exbeerience.ethz.ch"
    },
    {
      "employer": "Polyband",
      "job": "Vice President / President",
      "start": "2022",
      "end": "2024",
      "website": "https://polyband.ch",
      "description": "In Polyband, the big band of UZH and ETH, I was responsible for marketing and advertising, as well as for organizing some events like the rehearsal weekend or the fondue evening. Since I was also a pianist, I also took care of the set-up at concerts."
    },
    {
      "employer": "AMIV an der ETH - Academic Mechanical and Electrical Engineers Association",
      "job": "IT",
      "start": "2022",
      "end": "2023",
      "website": "https://amiv.ethz.ch",
      "description": "At AMIV, I managed the IT infrastructure with its server cluster and many applications. I also organized a semesterly coding weekend where we spent a weekend developing for AMIV's IT infrastructure."
    }
  ]
}
